[
  {
    "word":"Kingdom Monera",
    "defi":"This kingdom contains all of the prokaryotic organisms and are all one celled."
  },
  {
    "word":"Bacteria",
    "defi":"Another name organisms in Kingdom Monera. They are all single-celled prokaryotic organisms."
  },
  {
    "word":"Pathogenic bacteria",
    "defi":"Bacteria that make us sick."
  },
  {
    "word":"Archaebacteria",
    "defi":"Have weird or atypical cell walls and can live under extreme conditions."
  },
  {
    "word":"Pathogens",
    "defi":"Disease causers or parasites"
  },
  {
    "word":"Parts of a bacteria",
    "defi":"Fimbriae, plasma membrane, cytoplasm, DNA, ribosomes, some bacteria have a capsule with or without a cell wall and a flagellum"
  },
  {
    "word":"Ribosomes",
    "defi":"Organelles that make proteins. They are not membrane-bounded and are present in both prokaryotic cells and eukaryotic cells"
  },
  {
    "word":"Fimbriae",
    "defi":"Bristles outside the cell wall and capsule of bacteria that are used to help the bacteria stick to things and to exchange genetic information"
  },
  {
    "word":"Capsule",
    "defi":"an extra protective covering for bacteria that makes it tough to kill."
  },
  {
    "word":"Cell wall",
    "defi":"An extra barrier between the organism's plasma membrane and the capsule or if no capsule then it is the outermost layer. It takes care of regulating water in and out of the bacteria, holds contents of bacteria together and gives the bacteria it's shape."
  },
  {
    "word":"Plasma membrane",
    "defi":"This surrounds the cytoplasm of every bacteria and has the job of deciding what comes into and goes out of the bacteria"
  },
  {
    "word":"Cytoplasm",
    "defi":"The plasma membrane surrounds this jello-like stuff that fills most of the inside of the bacteria"
  },
  {
    "word":"DNA",
    "defi":"Contains the codes for the proteins that the organism will need to make in order to live."
  },
  {
    "word":"Flagellum",
    "defi":"A motorized tail which consists of a filament, hook, basal body and more. It acts like an outboard motor."
  },
  {
    "word":"Coccus, bacillus and spirillum",
    "defi":"The three possible shapes of bacteria."
  },
  {
    "word":"Coccus",
    "defi":"Bacteria that are spherical- They look like balls."
  },
  {
    "word":"Bacillus",
    "defi":"Rod shaped Bacteria -they look like straight cheese curls"
  },
  {
    "word":"Spirillum",
    "defi":"Helical- spiral shaped bacterial Looks like twisted pasta."
  },
  {
    "word":"Aerobic organisms",
    "defi":"Some organisms (like bacteria) need oxygen to get energy from food so they are called this."
  },
  {
    "word":"Saprophytes",
    "defi":"Organisms that feed on dead matter."
  },
  {
    "word":"Parasites",
    "defi":"feed on a living host."
  },
  {
    "word":"Autotrophs",
    "defi":"Make their own food,"
  },
  {
    "word":"Anaerobic organisms",
    "defi":"these get energyfood without using oxygen so they are called this."
  },
  {
    "word":"Asexual Reproduction",
    "defi":"This is the way that bacteria reproduce and grow in numbers."
  },
  {
    "word":"Binary fission",
    "defi":"Asexual reproduction in bacteria that involves the bacteria splitting in two after the DNA is copied."
  },
  {
    "word":"Logistic growth:",
    "defi":"(means logical growth) Population growth in bacteria that is controlled because of limited resources. Limited food or water means limited growth of the population."
  },
  {
    "word":"Exponential growth",
    "defi":"Population growth that is unhindered because of the abundance of resources (like a lot of food and water)"
  },
  {
    "word":"Steady state",
    "defi":"A state in which members of a population die as quickly as new members are born."
  },
  {
    "word":"Genetic Recombination",
    "defi":"Means getting new DNA from another bacteria and can benefit bacteria. For example it may enable the bacteria to fend off a new antibiotic."
  },
  {
    "word":"Plasmid",
    "defi":"Strand of extra bacterial DNA or RNA that can be reproduced separately from main bacterial DNA"
  },
  {
    "word":"Conjugation",
    "defi":"A temporary union of 2 organisms, in order to transfer DNA. A bacteria with an extra piece of separate helpful DNA will grab another bacteria, and injects its special helpful DNA (plasmid) into the other bacteria via a conjugation tube. The two of them work together to copy the plasmid until a new copy is made and each keep one of the two copies."
  },
  {
    "word":"Transformation",
    "defi":"The transfer of a DNA segment from a nonfunctional donor cell to that of a functional recipient cell. Bacteria \"sense\" when an old piece of DNA is floating near them (the remains of a dead bacteria that had partially decomposed). It \"thinks\" I could really use that DNA to do great things so it grabs that DNA strand and it becomes a plasmid, which it can then pass on to other needy bacteria."
  },
  {
    "word":"Transduction",
    "defi":"The process in which infection by a virus results in DNA being transferred from one bacterium to another."
  },
  {
    "word":"Endospore:",
    "defi":"Bacteria forms this when under bad conditions by coating its essential parts with several hard layers."
  },
  {
    "word":"Bacterial Colonies",
    "defi":"Individual bacteria living in a group to help each other and often covered with slime to unify them. Though they can survive on their own they improve their chance of survival by being in this group."
  },
  {
    "word":"Multi-cellular organism",
    "defi":"The cells specialize each have a special function and the cells cannot survive if separated from the body since they cannot do all the functions needed for life by themselves."
  },
  {
    "word":"Gram stain",
    "defi":"Used to stain bacteria different colors."
  },
  {
    "word":"Gram positive",
    "defi":"These bacteria become blue when stained with the Gram stain"
  },
  {
    "word":"Gram negative bacteria",
    "defi":"These bacteria will become pink when stained with the Gram stain"
  },
  {
    "word":"Gracilicutes",
    "defi":"Phylum that has all Gram Negative (graceful pink) bacteria and is divided by photosynthesis."
  },
  {
    "word":"Scoto bacteria",
    "defi":"Darkness bacteria- Class in Phylum Gracilicutes that like darkness and are heterotrophic, not photosynthetic"
  },
  {
    "word":"Anoxyphoto bacteria",
    "defi":"Class in Gracilicutes that uses Photosynthesis but doesn't give off oxygen."
  },
  {
    "word":"Oxy photo bacteria",
    "defi":"Class in Gracilicutes that uses photosynthesis and gives off oxygen. Ex. Blue-green algae-look like algae but are really blue-green bacteria that photosynthesize."
  },
  {
    "word":"Salmonella",
    "defi":"A pathogenic bacteria that gives diarrhea and often comes from poultry and eggs"
  },
  {
    "word":"Firmicutes",
    "defi":"This phylum has all the Gram-Positive bacteria and stain blue. They are sub-divided only by shape."
  },
  {
    "word":"Firmibacteria",
    "defi":"A class in Phylum Firmicutes that contains all the gram positive bacteria that are spherical-cocci or rod shaped-bacilli"
  },
  {
    "word":"Thallobacteria:",
    "defi":"A class in Phylum Firmicutes which contains all the gram positive bacteria that were spirillum (helical)."
  },
  {
    "word":"Clostridium Botulinum",
    "defi":"Can make itself into an endospore and live in some improperly canned food and causes botulism (a type of food poisoning)."
  },
  {
    "word":"Pasteurizing food",
    "defi":"Heating food to 145 degrees F for 30 min or 161 degrees F for 15 sec. and rapidly cooling which kills 95% of bacteria.)"
  },
  {
    "word":"Strain",
    "defi":"Organisms from the same species with markedly different traits."
  }
]

