[
  {
    "word":"Invertebrates",
    "defi":"Animals that lack a backbone",
    "pack": ["Epidermis", "Ganglia", "Circulatory system"]
  },
  {
    "word":"Vertebrates",
    "defi":"Animals that possess a backbone",
    "pack": ["Epidermis", "Circulatory system"]
  },
  {
    "word":"Spherical symmetry",
    "defi":"An organism possesses spherical symmetry if it can be cut into two identical halves by any cut that runs through the organism's center.",
    "pack": ["Hermaphroditic"]
  },
  {
    "word":"Radial symmetry",
    "defi":"An organism possesses radial symmetry if it can be cut into two identical halves by any longitudinal cut through its center."
  },
  {
    "word":"Bilateral symmetry",
    "defi":"An organism possesses bilateral symmetry if it can only be cut into two identical halves by a single longitudinal cut along its center which divides it into right and left halves."
  },
  {
    "word":"Epidermis",
    "defi":"An outer layer of cells designed to provide protection"
  },
  {
    "word":"Mesenchyme",
    "defi":"The jellylike substance that separates the epidermis from the inner cells in a sponge"
  },
  {
    "word":"Collar cells",
    "defi":"Flagellated cells that push water through a sponge"
  },
  {
    "word":"Amoebocytes",
    "defi":"Cells that move using pseudopods and perform a variety of functions in animals"
  },
  {
    "word":"Gemmule",
    "defi":"A cluster of cells encased in a hard, spicule-reinforced shell"
  },
  {
    "word":"Polyp",
    "defi":"The sessile, tubular form of a cnidarian with a mouth and tentacles at one end and a basal disk at the other"
  },
  {
    "word":"Medusa",
    "defi":"A free-swimming cnidarian with a bell-shaped body and tentacles"
  },
  {
    "word":"Epithelium",
    "defi":"Animal tissue consisting of one or more layers of cells that have only one free surface, because the other surface adheres to a membrane or other substance"
  },
  {
    "word":"Mesoglea",
    "defi":"The jelly-like substance that separates the epithelial cells in a cnidarian"
  },
  {
    "word":"Nematocysts",
    "defi":"Small capsules that contain a toxin which is injected into prey or predators"
  },
  {
    "word":"Testes",
    "defi":"Organs that produce sperm"
  },
  {
    "word":"Ovaries",
    "defi":"Organs that produce eggs"
  },
  {
    "word":"Anterior end",
    "defi":"The end of an animal that contains its head"
  },
  {
    "word":"Posterior end",
    "defi":"The end of an animal that contains its tail"
  },
  {
    "word":"Circulatory system",
    "defi":"A system designed to transport food and other necessary substances throughout a creature's body"
  },
  {
    "word":"Nervous system",
    "defi":"A system of sensitive cells that respond to stimuli such as sound, touch, and taste"
  },
  {
    "word":"Ganglia",
    "defi":"Masses of nerve cell bodies"
  },
  {
    "word":"Hermaphroditic",
    "defi":"Possessing both the male and the female reproductive organs"
  },
  {
    "word":"Regeneration",
    "defi":"The ability to regrow a missing part of the body"
  },
  {
    "word":"Mantle",
    "defi":"A sheath of tissue that encloses the vital organs of a mollusk, secretes its shell, and performs respiration"
  },
  {
    "word":"Shell",
    "defi":"A tough, multilayered structure secreted by the mantle, generally used for protection, but sometimes for body support"
  },
  {
    "word":"Visceral hump",
    "defi":"A hump that contains a mollusk's heart, digestive, and excretory organs"
  },
  {
    "word":"Foot",
    "defi":"A muscular organ that is used for locomotion and takes a variety of forms depending on the animal"
  },
  {
    "word":"Radula",
    "defi":"An organ covered with teeth that mollusks use to scrape food into their mouths"
  },
  {
    "word":"Univalve",
    "defi":"An organism with a single shell"
  },
  {
    "word":"Bivalve",
    "defi":"An organism with two shells"
  }
]