[
  {
    "word":"Vertebrae",
    "defi":"Segments of bone or some other hard substance that are arranged into a backbone"
  },
  {
    "word":"Notochord",
    "defi":"A rod of tough, flexible material that runs the length of a creature's body, providing the majority of its support"
  },
  {
    "word":"Endoskeleton",
    "defi":"A skeleton on the inside of a creature's body, typically composed of bone or cartilage"
  },
  {
    "word":"Bone marrow",
    "defi":"A soft tissue inside the bone that produces blood cells"
  },
  {
    "word":"Axial skeleton",
    "defi":"The portion of the skeleton that supports and protects the head, neck, and trunk"
  },
  {
    "word":"Appendicular skeleton",
    "defi":"The portion of the skeleton that attaches to the axial skeleton and has the limbs attached to it"
  },
  {
    "word":"Closed circulatory system",
    "defi":"A circulatory system in which the oxygen-carrying blood cells never leave the blood vessels"
  },
  {
    "word":"Arteries",
    "defi":"Blood vessels that carry blood away from the heart"
  },
  {
    "word":"Capillaries",
    "defi":"Tiny, thin-walled blood vessels that allow the exchange of gases and nutrients between the blood and the cells of the body"
  },
  {
    "word":"Veins",
    "defi":"Blood vessels that carry blood back to the heart"
  },
  {
    "word":"Olfactory lobes",
    "defi":"The lobes of the brain that receive signals from the receptors in the nose"
  },
  {
    "word":"Cerebrum",
    "defi":"The lobes of the brain that integrate sensory information and coordinate the creature's response to that information"
  },
  {
    "word":"Optic lobes",
    "defi":"The lobes of the brain that receive signals from the receptors in the eyes"
  },
  {
    "word":"Cerebellum",
    "defi":"The lobe that controls involuntary actions and refines muscle movement"
  },
  {
    "word":"Medulla oblongata",
    "defi":"The lobes that coordinate vital functions, such as those of the circulatory and respiratory systems, and transport signals from the brain to the spinal chord"
  },
  {
    "word":"Internal fertilization",
    "defi":"The process by which the male places sperm inside the female's body, where the eggs are fertilized"
  },
  {
    "word":"External fertilization",
    "defi":"The process by which the female lays eggs and the male fertilizes them once they are outside of the female"
  },
  {
    "word":"Oviparous development",
    "defi":"Development that occurs in an egg that is hatched outside the female's body"
  },
  {
    "word":"Ovoviviparous development",
    "defi":"Development that occurs in an egg that is hatched inside the female's body"
  },
  {
    "word":"Viviparous development",
    "defi":"Development that occurs inside the female, allowing the offspring to gain nutrients and vital substances from the mother through a placenta"
  },
  {
    "word":"Anadromous",
    "defi":"A life cycle in which creatures are hatched in fresh water, migrate to salt water as adults, and then go back to fresh water in order to reproduce"
  },
  {
    "word":"Bile",
    "defi":"A mixture of salts and phospholipids that aids in the breakdown of fat"
  },
  {
    "word":"Atrium",
    "defi":"A heart chamber that receives blood"
  },
  {
    "word":"Ventricle",
    "defi":"A heart chamber from which blood in pumped out"
  },
  {
    "word":"Ectothermic",
    "defi":"Lacking an internal mechanism for regulating body heat"
  },
  {
    "word":"Hibernation",
    "defi":"A state of extremely low metabolism and respiration, accompanied by lower-than-normal body temperatures"
  }
]